Astronaut data
…
astronauts <- readr::read_csv('https://raw.githubusercontent.com/rfordatascience/tidytuesday/master/data/2020/2020-07-14/astronauts.csv')

## Rows: 1277 Columns: 24
## -- Column specification --------------------------------------------------------
## Delimiter: ","
## chr (11): name, original_name, sex, nationality, military_civilian, selectio...
## dbl (13): id, number, nationwide_number, year_of_birth, year_of_selection, m...
## 
## i Use `spec()` to retrieve the full column specification for this data.
## i Specify the column types or set `show_col_types = FALSE` to quiet this message.

astronauts %>% count(nationality, sort=TRUE)

## # A tibble: 40 x 2
##    nationality        n
##    <chr>          <int>
##  1 U.S.             854
##  2 U.S.S.R/Russia   273
##  3 Japan             20
##  4 Canada            18
##  5 France            18
##  6 Germany           16
##  7 China             14
##  8 Italy             13
##  9 U.K./U.S.          6
## 10 Australia          4
## # ... with 30 more rows
…
